%YAML 1.1
%TAG !u! tag:unity3d.com,2011:
--- !u!21 &2100000
Material:
  serializedVersion: 6
  m_ObjectHideFlags: 0
  m_CorrespondingSourceObject: {fileID: 0}
  m_PrefabInstance: {fileID: 0}
  m_PrefabAsset: {fileID: 0}
  m_Name: PolygonSpace_Planet_Lines_02_D
  m_Shader: {fileID: 4800000, guid: 6c02f021372cf984b95c361a21269d0e, type: 3}
  m_ShaderKeywords: 
  m_LightmapFlags: 0
  m_EnableInstancingVariants: 0
  m_DoubleSidedGI: 0
  m_CustomRenderQueue: -1
  stringTagMap: {}
  disabledShaderPasses: []
  m_SavedProperties:
    serializedVersion: 3
    m_TexEnvs:
    - Texture2D_C4C4D0DA:
        m_Texture: {fileID: 2800000, guid: a22633082f90f1348a01ddcd1c9bc8c5, type: 3}
        m_Scale: {x: 1, y: 1}
        m_Offset: {x: 0, y: 0}
    - _BotTexture0:
        m_Texture: {fileID: 0}
        m_Scale: {x: 1, y: 1}
        m_Offset: {x: 0, y: 0}
    - _BumpMap:
        m_Texture: {fileID: 0}
        m_Scale: {x: 1, y: 1}
        m_Offset: {x: 0, y: 0}
    - _Clouds:
        m_Texture: {fileID: 2800000, guid: cd460ee4ac5c1e746b7a734cc7cc64dd, type: 3}
        m_Scale: {x: 1, y: 1}
        m_Offset: {x: 0, y: 0}
    - _DetailAlbedoMap:
        m_Texture: {fileID: 0}
        m_Scale: {x: 1, y: 1}
        m_Offset: {x: 0, y: 0}
    - _DetailMask:
        m_Texture: {fileID: 0}
        m_Scale: {x: 1, y: 1}
        m_Offset: {x: 0, y: 0}
    - _DetailNormalMap:
        m_Texture: {fileID: 0}
        m_Scale: {x: 1, y: 1}
        m_Offset: {x: 0, y: 0}
    - _EmissionMap:
        m_Texture: {fileID: 0}
        m_Scale: {x: 1, y: 1}
        m_Offset: {x: 0, y: 0}
    - _MainTex:
        m_Texture: {fileID: 0}
        m_Scale: {x: 1, y: 1}
        m_Offset: {x: 0, y: 0}
    - _MetallicGlossMap:
        m_Texture: {fileID: 0}
        m_Scale: {x: 1, y: 1}
        m_Offset: {x: 0, y: 0}
    - _Normal:
        m_Texture: {fileID: 0}
        m_Scale: {x: 1, y: 1}
        m_Offset: {x: 0, y: 0}
    - _Normals:
        m_Texture: {fileID: 0}
        m_Scale: {x: 1, y: 1}
        m_Offset: {x: 0, y: 0}
    - _OcclusionMap:
        m_Texture: {fileID: 0}
        m_Scale: {x: 1, y: 1}
        m_Offset: {x: 0, y: 0}
    - _Overlay:
        m_Texture: {fileID: 2800000, guid: cd460ee4ac5c1e746b7a734cc7cc64dd, type: 3}
        m_Scale: {x: 1, y: 1}
        m_Offset: {x: 0, y: 0}
    - _ParallaxMap:
        m_Texture: {fileID: 0}
        m_Scale: {x: 1, y: 1}
        m_Offset: {x: 0, y: 0}
    - _PlanetSurfaceColor:
        m_Texture: {fileID: 2800000, guid: 67c01b19dd0b2354f932b32748d8491d, type: 3}
        m_Scale: {x: 1, y: 1}
        m_Offset: {x: 0, y: 0}
    - _Texture:
        m_Texture: {fileID: 2800000, guid: 615d853995cf2344d8641fd19cb09b5d, type: 3}
        m_Scale: {x: 1, y: 1}
        m_Offset: {x: 0, y: 0}
    - _Texture0:
        m_Texture: {fileID: 2800000, guid: 2147928718db1274fb5e6d3d2f995917, type: 3}
        m_Scale: {x: 1, y: 1}
        m_Offset: {x: 0, y: 0}
    - _TextureSample0:
        m_Texture: {fileID: 2800000, guid: 67c01b19dd0b2354f932b32748d8491d, type: 3}
        m_Scale: {x: 1, y: 1}
        m_Offset: {x: 0, y: 0}
    - _TopTexture0:
        m_Texture: {fileID: 0}
        m_Scale: {x: 1, y: 1}
        m_Offset: {x: 0, y: 0}
    - _texcoord:
        m_Texture: {fileID: 0}
        m_Scale: {x: 1, y: 1}
        m_Offset: {x: 0, y: 0}
    m_Floats:
    - Vector1_42ED4346: 0
    - Vector1_CBF347CE: 2
    - _ASEOutlineWidth: 0.01
    - _BumpScale: 1
    - _Cloud_Contrast: 1.2
    - _Cloud_Falloff: 4.24
    - _Cloud_Tiling: -3.3
    - _Contrast: -8.14
    - _Cutoff: 0.5
    - _DetailNormalMapScale: 1
    - _DstBlend: 0
    - _Falloff: 1.97
    - _Float0: 2.6
    - _Float1: -0.26
    - _Float2: 0.54
    - _Fresnel: 8.35
    - _GlossMapScale: 1
    - _Glossiness: 0.5
    - _GlossyReflections: 1
    - _Metallic: 0
    - _Mode: 0
    - _NormalFalloff: 0
    - _Normal_Tiling: 0
    - _OcclusionStrength: 1
    - _Parallax: 0.02
    - _PlanetSurfaceContrast: -3.6
    - _PlanetSurfaceFloat: 2
    - _PlanetSurfaceTiling: 2
    - _RimPower: 2.95
    - _Scale: -0
    - _SmoothnessTextureChannel: 0
    - _SpecularHighlights: 1
    - _SrcBlend: 1
    - _Strength: 2.72
    - _Tiling: 0.97
    - _UVSec: 0
    - _ZWrite: 1
    - __dirty: 0
    - _frez: 16.33
    m_Colors:
    - Color_7C11588D: {r: 0.59367, g: 0.29561228, b: 0.6886792, a: 0}
    - _ASEOutlineColor: {r: 0.5181034, g: 0.4426903, b: 0.6764706, a: 0}
    - _BaseColor: {r: 0.10553633, g: 0.44852942, b: 0.20725152, a: 0}
    - _Color: {r: 1, g: 1, b: 1, a: 1}
    - _Color0: {r: 0, g: 0.7931032, b: 1, a: 0}
    - _Color1: {r: 0, g: 0, b: 0, a: 0}
    - _EmissionColor: {r: 0, g: 0, b: 0, a: 1}
    - _RimColor: {r: 1, g: 0.18396229, b: 0.9193271, a: 1}
    - _Second_Color: {r: 0.26648524, g: 0.5441177, b: 0.07601645, a: 0}
    - _Size: {r: 0, g: 0, b: 0, a: 0}
  m_BuildTextureStacks: []
